study,test,N,n
Santa Clara,premier,3330,50
Los Angeles,premier,863,35
Gangelt,euroimmun,500,70
Boston (Chelsea),biomedomics,200,63
Telluride (CO),ubi,4757,96
Geneva (Switzerland) week 1,euroimmun,343,12
Geneva (Switzerland) week 2,euroimmun,417,23
